{
  "selfDescriptionCredential": {
    "@context": [
      "http://www.w3.org/ns/shacl#",
      "http://www.w3.org/2001/XMLSchema#",
      "http://w3id.org/gaia-x/resource#",
      "http://w3id.org/gaia-x/participant#",
      "http://w3id.org/gaia-x/service-offering#"
    ],
    "@type": [
      "VerifiableCredential",
      "ServiceOfferingExperimental"
    ],
    "@id": "https://compliance.gaia-x.eu/.well-known/serviceComplianceService.json",
    "credentialSubject": {
      "id": "https://compliance.gaia-x.eu/.well-known/serviceComplianceService.json",
      "gx-service-offering:providedBy": {
        "@type": "xsd:string",
        "@value": "https://compliance.gaia-x.eu/.well-known/participant.json"
      },
      "gx-service-offering:name": {
        "@type": "xsd:string",
        "@value": "Gaia-X Lab Compliance Service"
      },
      "gx-service-offering:description": {
        "@type": "xsd:string",
        "@value": "The Compliance Service will validate the shape and content of Self Descriptions. Required fields and consistency rules are defined in the Gaia-X Trust Framework."
      },
      "gx-service-offering:webAddress": {
        "@value": "https://compliance.gaia-x.eu/",
        "@type": "xsd:anyURI"
      },
      "gx-service-offering:termsAndConditions": [
        {
          "@type": "gx-service-offering:TermsAndConditions",
          "gx-service-offering:url": "https://compliance.gaia-x.eu/terms",
          "gx-service-offering:hash": "myrandomhash"
        }
      ],
      "gx-service-offering:gdpr": [
        {
          "@type": "xsd:anyURI",
          "gx-service-offering:imprint": "https://gaia-x.eu/imprint/"
        },
        {
          "@type": "xsd:anyURI",
          "gx-service-offering:privacyPolicy": "https://gaia-x.eu/privacy-policy/"
        }
      ],
      "gx-service-offering:dependsOn": [
        {
          "@type": "xsd:anyURI",
          "@value": "https://compliance.gaia-x.eu/.well-known/serviceManagedPostgreSQLOVH.json"
        },
        {
          "@type": "xsd:anyURI",
          "@value": "https://compliance.gaia-x.eu/.well-known/serviceManagedK8sOVH.json"
        }
      ]
    },
    "proof": {
      "type": "JsonWebKey2020",
      "created": "2022-06-17T07:52:48.147Z",
      "proofPurpose": "assertionMethod",
      "verificationMethod": "did:web:compliance.lab.gaia-x.eu",
      "jws": "eyJhbGciOiJQUzI1NiIsImI2NCI6ZmFsc2UsImNyaXQiOlsiYjY0Il19..baQ1Ks9ZM1YelRxZAoyH3XmgU5qMt-30Z27Mwadw8lv6WptueelIxL1RpoMctUXQalgUpLRnXJdo6U0igyrwHNyqx4rQcAlG8tkvflG9o0IYzcr6ojdb7--gkV9KlfN2yvzIB41BxfyTndK-4CgW_WwnwjxMQ3XbTGe3vgaz6ErohcSN846nXiX8Fph9HknEKWPF7MJoe2yFGXudLppnYKpMP2kiXU74_WeaAm7y1PXMeIL-qw9YDLUgqQ53Vg2YAd-4gDhYzhgZig2K-FrHm2aNRKyLyWFl47fxxik5hsU-SveTsnyJjkqfFTgqScjf2-F7pw7RsdBvCxIjsWNZ8A"
    }
  },
  "complianceCredential": {
    "@context": [
      "https://www.w3.org/2018/credentials/v1"
    ],
    "@type": [
      "VerifiableCredential",
      "ServiceOfferingCredentialExperimental"
    ],
    "id": "https://catalogue.gaia-x.eu/credentials/ServiceOfferingCredentialExperimental/1655452370826",
    "issuer": "did:web:compliance.gaia-x.eu",
    "issuanceDate": "2022-06-17T07:52:50.826Z",
    "credentialSubject": {
      "id": "https://compliance.gaia-x.eu/.well-known/serviceComplianceService.json",
      "hash": "8424132029ec053ea6aef978e86f39874f8ffcaa35826ecad18b2616cd77e092"
    },
    "proof": {
      "type": "JsonWebKey2020",
      "created": "2022-06-17T07:52:50.826Z",
      "proofPurpose": "assertionMethod",
      "jws": "eyJhbGciOiJQUzI1NiIsImI2NCI6ZmFsc2UsImNyaXQiOlsiYjY0Il19..mJIKkp3L49QIW9FiWqdXINdLIdLBlCxpp0O-F8-pIXZ8OM4dTxJwZI-NJod4H56cEq7U3oqgH5gxfAUZCvD8YmZYerULBGzFuGnutVn-2uD9nyqhkVZnoyPUZoauJ7zRL-emt875vTg9TPZHIgQa3NsDm011KnQFy03l9IpGcndZRMH7YXj-q0YPKQm55Gq0jBKR9xJivSFWKeXQ2dBmDbFDhwCF1vNTeIK7SlwGt0TvDcACNth4ZrAgytiWPhyvyIolQafjt1tcP07a3_wHp1G5PJtKFXF27awDvXElZlY2b1x8kRbQgram2qM1Zi2LxrUpXfvEawf-0EumjwyBrA",
      "verificationMethod": "did:web:compliance.gaia-x.eu"
    }
  }
}